{
	"apiURL":"http://de.wikipedia.org/w/api.php?",
	"category":"Kategorie:Wikipedia:Lesenswert", // if no category is given, this resorts to downloading the articles given on the commandline
	"outputDirectory":"german_text",
	"retrieve":"text", 
	"format": "html" // can be html/txt/xml for wikipedia articles, or "all" for all three
}
